GCC Cox & Haebig Networks
…
    !(definition %in% c("babysitter's name", "child's own name",
                        "give me five!", "gonna get you!", "pet's name",
                        "so big!", "this little piggy"))
  ) %>%
  mutate(
    # Seven categories are functional, the rest are content
    group = if_else(category %in% c("connecting_words", "helping_verbs",
                                    "locations", "pronouns", "quantifiers",
                                    "question_words", "time_words"),
                    "func", "content")
  )

sdict

## # A tibble: 597 x 5
##    category definition     item_id type  group  
##    <chr>    <chr>          <chr>   <chr> <chr>  
##  1 sounds   baa baa        item_1  word  content
##  2 sounds   choo choo      item_2  word  content
##  3 sounds   cockadoodledoo item_3  word  content
##  4 sounds   grrr           item_4  word  content
##  5 sounds   meow           item_5  word  content
##  6 sounds   moo            item_6  word  content
##  7 sounds   ouch           item_7  word  content
##  8 sounds   quack quack    item_8  word  content
##  9 sounds   uh oh          item_9  word  content
## 10 sounds   vroom          item_10 word  content
## # ... with 587 more rows
…
I decided to use the more conservative threshold (mean over median),
and removed those low-rate edges from the table.

assocs_tbl_high <- assocs_tbl %>%
  filter(
    pct_resp_in_cue > mean(pct_resp_in_cue)
  ) %>%
  select(CUE, RESPONSE, pct_resp_in_cue)

assocs_tbl_high

## # A tibble: 2,839 x 3
## # Groups:   CUE [569]
##    CUE   RESPONSE pct_resp_in_cue
##    <chr> <chr>              <dbl>
##  1 a     and                 3.81
##  2 a     apple              11.4 
##  3 a     first               6.67
##  4 a     is                  3.81
##  5 a     it                 11.4 
##  6 a     that                4.76
##  7 a     the                22.9 
##  8 a     this                7.62
##  9 a lot big                14.3 
## 10 a lot more               48.2 
## # ... with 2,829 more rows
…
